id,type,origin filename,new filename,TB,DB,isFeed,selected,remark
1,have,002475099A TB 7.4 DB 4.0\1_1_1_10.tif,00001_have_002475099A_1_1_1_10.tif,7.4,4.0,0,1,
2,have,002475099A TB 7.4 DB 4.0\1_1_1_11.tif,00002_have_002475099A_1_1_1_11.tif,7.4,4.0,0,1,
3,have,002475099A TB 7.4 DB 4.0\1_1_1_12.tif,00003_have_002475099A_1_1_1_12.tif,7.4,4.0,0,1,
4,have,002475099A TB 7.4 DB 4.0\1_1_1_13.tif,00004_have_002475099A_1_1_1_13.tif,7.4,4.0,0,1,
5,have,002475099A TB 7.4 DB 4.0\1_1_1_14.tif,00005_have_002475099A_1_1_1_14.tif,7.4,4.0,0,1,
6,have,002475099A TB 7.4 DB 4.0\1_1_1_15.tif,00006_have_002475099A_1_1_1_15.tif,7.4,4.0,0,1,
7,have,002475099A TB 7.4 DB 4.0\1_1_1_25.tif,00007_have_002475099A_1_1_1_25.tif,7.4,4.0,0,1,
8,have,002475099A TB 7.4 DB 4.0\1_1_1_9.tif,00008_have_002475099A_1_1_1_9.tif,7.4,4.0,0,1,
9,have,002481862A TB 9.2 DB 4.7\1_1_1_1.tif,00009_have_002481862A_1_1_1_1.tif,9.2,4.7,0,1,
10,have,002481862A TB 9.2 DB 4.7\1_1_1_10.tif,00010_have_002481862A_1_1_1_10.tif,9.2,4.7,0,1,
11,have,002481862A TB 9.2 DB 4.7\1_1_1_11.tif,00011_have_002481862A_1_1_1_11.tif,9.2,4.7,0,1,
12,have,002481862A TB 9.2 DB 4.7\1_1_1_2.tif,00012_have_002481862A_1_1_1_2.tif,9.2,4.7,0,0,
13,have,002481862A TB 9.2 DB 4.7\1_1_1_3.tif,00013_have_002481862A_1_1_1_3.tif,9.2,4.7,0,0,
14,have,002481862A TB 9.2 DB 4.7\1_1_1_7.tif,00014_have_002481862A_1_1_1_7.tif,9.2,4.7,0,1,
15,have,002481862A TB 9.2 DB 4.7\1_1_1_8.tif,00015_have_002481862A_1_1_1_8.tif,9.2,4.7,0,1,
16,have,002481862A TB 9.2 DB 4.7\1_1_1_9.tif,00016_have_002481862A_1_1_1_9.tif,9.2,4.7,0,1,
17,have,002481862A TB 9.2 DB 4.7\1_1_2_21.tif,00017_have_002481862A_1_1_2_21.tif,9.2,4.7,0,1,
18,have,002481862A TB 9.2 DB 4.7\1_1_2_22.tif,00018_have_002481862A_1_1_2_22.tif,9.2,4.7,0,1,
19,have,002488781I TB 14.9 DB 4.0\1_1_1_1.tif,00019_have_002488781I_1_1_1_1.tif,14.9,4.0,0,1,
20,have,002488781I TB 14.9 DB 4.0\1_1_1_10.tif,00020_have_002488781I_1_1_1_10.tif,14.9,4.0,0,1,
21,have,002488781I TB 14.9 DB 4.0\1_1_1_11.tif,00021_have_002488781I_1_1_1_11.tif,14.9,4.0,0,1,
22,have,002488781I TB 14.9 DB 4.0\1_1_1_12.tif,00022_have_002488781I_1_1_1_12.tif,14.9,4.0,0,1,
23,have,002488781I TB 14.9 DB 4.0\1_1_1_13.tif,00023_have_002488781I_1_1_1_13.tif,14.9,4.0,0,1,
24,have,002488781I TB 14.9 DB 4.0\1_1_1_14.tif,00024_have_002488781I_1_1_1_14.tif,14.9,4.0,0,1,
25,have,002488781I TB 14.9 DB 4.0\1_1_1_2.tif,00025_have_002488781I_1_1_1_2.tif,14.9,4.0,0,0,
26,have,002488781I TB 14.9 DB 4.0\1_1_1_3.tif,00026_have_002488781I_1_1_1_3.tif,14.9,4.0,0,1,
27,have,002488781I TB 14.9 DB 4.0\1_1_1_7.tif,00027_have_002488781I_1_1_1_7.tif,14.9,4.0,0,1,
28,have,002488781I TB 14.9 DB 4.0\1_1_1_8.tif,00028_have_002488781I_1_1_1_8.tif,14.9,4.0,0,0,
29,have,002488781I TB 14.9 DB 4.0\1_1_1_9.tif,00029_have_002488781I_1_1_1_9.tif,14.9,4.0,0,1,
30,have,002544255B TB 5.8 DB 3.4\1_1_1_10.tif,00030_have_002544255B_1_1_1_10.tif,5.8,3.4,0,2,
31,have,002544255B TB 5.8 DB 3.4\1_1_1_11.tif,00031_have_002544255B_1_1_1_11.tif,5.8,3.4,0,2,
32,have,002544255B TB 5.8 DB 3.4\1_1_1_12.tif,00032_have_002544255B_1_1_1_12.tif,5.8,3.4,0,2,
33,have,002544255B TB 5.8 DB 3.4\1_1_1_13.tif,00033_have_002544255B_1_1_1_13.tif,5.8,3.4,0,2,
34,have,002544255B TB 5.8 DB 3.4\1_1_1_14.tif,00034_have_002544255B_1_1_1_14.tif,5.8,3.4,0,2,
35,have,002544255B TB 5.8 DB 3.4\1_1_1_15.tif,00035_have_002544255B_1_1_1_15.tif,5.8,3.4,0,2,
36,have,002544255B TB 5.8 DB 3.4\1_1_1_4.tif,00036_have_002544255B_1_1_1_4.tif,5.8,3.4,0,2,
37,have,002544255B TB 5.8 DB 3.4\1_1_1_5.tif,00037_have_002544255B_1_1_1_5.tif,5.8,3.4,0,2,
38,have,002544255B TB 5.8 DB 3.4\1_1_1_6.tif,00038_have_002544255B_1_1_1_6.tif,5.8,3.4,0,2,
39,have,002544255B TB 5.8 DB 3.4\1_1_1_7.tif,00039_have_002544255B_1_1_1_7.tif,5.8,3.4,0,2,
40,have,002544255B TB 5.8 DB 3.4\1_1_1_8.tif,00040_have_002544255B_1_1_1_8.tif,5.8,3.4,0,2,
41,have,002544255B TB 5.8 DB 3.4\1_1_1_9.tif,00041_have_002544255B_1_1_1_9.tif,5.8,3.4,0,0,
42,have,002544255B TB 8.5 DB 5.0\1_1_1_1.tif,00042_have_002544255B_1_1_1_1.tif,8.5,5.0,0,2,
43,have,002544255B TB 8.5 DB 5.0\1_1_1_10.tif,00043_have_002544255B_1_1_1_10.tif,8.5,5.0,0,2,
44,have,002544255B TB 8.5 DB 5.0\1_1_1_11.tif,00044_have_002544255B_1_1_1_11.tif,8.5,5.0,0,2,
45,have,002544255B TB 8.5 DB 5.0\1_1_1_12.tif,00045_have_002544255B_1_1_1_12.tif,8.5,5.0,0,2,
46,have,002544255B TB 8.5 DB 5.0\1_1_1_2.tif,00046_have_002544255B_1_1_1_2.tif,8.5,5.0,0,0,
47,have,002544255B TB 8.5 DB 5.0\1_1_1_3.tif,00047_have_002544255B_1_1_1_3.tif,8.5,5.0,0,2,
48,have,002544255B TB 8.5 DB 5.0\1_1_1_7.tif,00048_have_002544255B_1_1_1_7.tif,8.5,5.0,0,2,
49,have,002544255B TB 8.5 DB 5.0\1_1_1_8.tif,00049_have_002544255B_1_1_1_8.tif,8.5,5.0,0,2,
50,have,002544255B TB 8.5 DB 5.0\1_1_1_9.tif,00050_have_002544255B_1_1_1_9.tif,8.5,5.0,0,2,
51,have,002544255B TB 8.5 DB 5.0\1_1_2_21.tif,00051_have_002544255B_1_1_2_21.tif,8.5,5.0,0,2,
52,have,002544255B TB 8.5 DB 5.0\1_1_2_22.tif,00052_have_002544255B_1_1_2_22.tif,8.5,5.0,0,0,
53,have,002544255B TB 8.5 DB 5.0\1_1_2_23.tif,00053_have_002544255B_1_1_2_23.tif,8.5,5.0,0,2,
54,have,002544255B TB 8.5 DB 5.0\1_1_2_24.tif,00054_have_002544255B_1_1_2_24.tif,8.5,5.0,0,2,
55,have,002544255B TB 8.5 DB 5.0\1_1_2_25.tif,00055_have_002544255B_1_1_2_25.tif,8.5,5.0,0,2,
56,have,002544255B TB 8.5 DB 5.0\1_1_2_26.tif,00056_have_002544255B_1_1_2_26.tif,8.5,5.0,0,0,
57,have,002544255B TB 8.5 DB 5.0\1_1_3_27.tif,00057_have_002544255B_1_1_3_27.tif,8.5,5.0,0,2,
58,have,002544255B TB 8.5 DB 5.0\1_1_3_28.tif,00058_have_002544255B_1_1_3_28.tif,8.5,5.0,0,0,
59,have,002544255B TB 8.5 DB 5.0\1_1_3_29.tif,00059_have_002544255B_1_1_3_29.tif,8.5,5.0,0,2,
60,have,002544255B TB 8.5 DB 5.0\1_1_3_30.tif,00060_have_002544255B_1_1_3_30.tif,8.5,5.0,0,2,
61,have,002544255B TB 8.5 DB 5.0\1_1_4_31.tif,00061_have_002544255B_1_1_4_31.tif,8.5,5.0,0,2,
62,have,002544255B TB 8.5 DB 5.0\1_1_4_32.tif,00062_have_002544255B_1_1_4_32.tif,8.5,5.0,0,0,
63,have,002544255B TB 8.5 DB 5.0\1_1_4_33.tif,00063_have_002544255B_1_1_4_33.tif,8.5,5.0,0,2,
64,have,002544255B TB 8.5 DB 5.0\1_1_4_34.tif,00064_have_002544255B_1_1_4_34.tif,8.5,5.0,0,2,
65,have,002544255B TB 8.5 DB 5.0\1_1_4_35.tif,00065_have_002544255B_1_1_4_35.tif,8.5,5.0,0,2,
66,have,002568910F TB 6.8 DB 3.1\1_1_1_1.tif,00066_have_002568910F_1_1_1_1.tif,6.8,3.1,0,1,
67,have,002568910F TB 6.8 DB 3.1\1_1_1_10.tif,00067_have_002568910F_1_1_1_10.tif,6.8,3.1,0,1,
68,have,002568910F TB 6.8 DB 3.1\1_1_1_11.tif,00068_have_002568910F_1_1_1_11.tif,6.8,3.1,0,1,
69,have,002568910F TB 6.8 DB 3.1\1_1_1_12.tif,00069_have_002568910F_1_1_1_12.tif,6.8,3.1,0,1,
70,have,002568910F TB 6.8 DB 3.1\1_1_1_13.tif,00070_have_002568910F_1_1_1_13.tif,6.8,3.1,0,1,
71,have,002568910F TB 6.8 DB 3.1\1_1_1_14.tif,00071_have_002568910F_1_1_1_14.tif,6.8,3.1,0,1,
72,have,002568910F TB 6.8 DB 3.1\1_1_1_15.tif,00072_have_002568910F_1_1_1_15.tif,6.8,3.1,0,1,
73,have,002568910F TB 6.8 DB 3.1\1_1_1_16.tif,00073_have_002568910F_1_1_1_16.tif,6.8,3.1,0,1,
74,have,002568910F TB 6.8 DB 3.1\1_1_1_17.tif,00074_have_002568910F_1_1_1_17.tif,6.8,3.1,0,1,
75,have,002568910F TB 6.8 DB 3.1\1_1_1_18.tif,00075_have_002568910F_1_1_1_18.tif,6.8,3.1,0,1,
76,have,002568910F TB 6.8 DB 3.1\1_1_1_2.tif,00076_have_002568910F_1_1_1_2.tif,6.8,3.1,0,1,
77,have,002568910F TB 6.8 DB 3.1\1_1_1_3.tif,00077_have_002568910F_1_1_1_3.tif,6.8,3.1,0,1,
78,have,002568910F TB 6.8 DB 3.1\1_1_1_4.tif,00078_have_002568910F_1_1_1_4.tif,6.8,3.1,0,0,
79,have,002568910F TB 6.8 DB 3.1\1_1_1_5.tif,00079_have_002568910F_1_1_1_5.tif,6.8,3.1,0,0,
80,have,002568910F TB 6.8 DB 3.1\1_1_2_28.tif,00080_have_002568910F_1_1_2_28.tif,6.8,3.1,0,1,
81,have,002568910F TB 6.8 DB 3.1\1_1_2_30.tif,00081_have_002568910F_1_1_2_30.tif,6.8,3.1,0,1,
82,have,002568910F TB 6.8 DB 3.1\1_1_2_31.tif,00082_have_002568910F_1_1_2_31.tif,6.8,3.1,0,0,
83,have,002580625B TB 8.5 DB 4.7\1_1_1_1.tif,00083_have_002580625B_1_1_1_1.tif,8.5,4.7,0,2,
84,have,002580625B TB 8.5 DB 4.7\1_1_1_10.tif,00084_have_002580625B_1_1_1_10.tif,8.5,4.7,0,2,
85,have,002580625B TB 8.5 DB 4.7\1_1_1_11.tif,00085_have_002580625B_1_1_1_11.tif,8.5,4.7,0,2,
86,have,002580625B TB 8.5 DB 4.7\1_1_1_12.tif,00086_have_002580625B_1_1_1_12.tif,8.5,4.7,0,2,
87,have,002580625B TB 8.5 DB 4.7\1_1_1_2.tif,00087_have_002580625B_1_1_1_2.tif,8.5,4.7,0,2,
88,have,002580625B TB 8.5 DB 4.7\1_1_1_6.tif,00088_have_002580625B_1_1_1_6.tif,8.5,4.7,0,2,
89,have,002580625B TB 8.5 DB 4.7\1_1_1_7.tif,00089_have_002580625B_1_1_1_7.tif,8.5,4.7,0,2,
90,have,002580625B TB 8.5 DB 4.7\1_1_1_8.tif,00090_have_002580625B_1_1_1_8.tif,8.5,4.7,0,2,
91,have,002580625B TB 8.5 DB 4.7\1_1_1_9.tif,00091_have_002580625B_1_1_1_9.tif,8.5,4.7,0,2,
92,have,002580625B TB 8.5 DB 4.7\1_1_2_24.tif,00092_have_002580625B_1_1_2_24.tif,8.5,4.7,0,2,
93,have,002580625B TB 8.5 DB 4.7\1_1_2_25.tif,00093_have_002580625B_1_1_2_25.tif,8.5,4.7,0,2,
94,have,002640246A TB 7.8 DB 4.1\1_1_1_1.tif,00094_have_002640246A_1_1_1_1.tif,7.8,4.1,0,1,
95,have,002640246A TB 7.8 DB 4.1\1_1_1_10.tif,00095_have_002640246A_1_1_1_10.tif,7.8,4.1,0,1,
96,have,002640246A TB 7.8 DB 4.1\1_1_1_11.tif,00096_have_002640246A_1_1_1_11.tif,7.8,4.1,0,1,
97,have,002640246A TB 7.8 DB 4.1\1_1_1_12.tif,00097_have_002640246A_1_1_1_12.tif,7.8,4.1,0,1,
98,have,002640246A TB 7.8 DB 4.1\1_1_1_13.tif,00098_have_002640246A_1_1_1_13.tif,7.8,4.1,0,1,
99,have,002640246A TB 7.8 DB 4.1\1_1_1_2.tif,00099_have_002640246A_1_1_1_2.tif,7.8,4.1,0,1,
100,have,002640246A TB 7.8 DB 4.1\1_1_1_3.tif,00100_have_002640246A_1_1_1_3.tif,7.8,4.1,0,1,
101,have,002640246A TB 7.8 DB 4.1\1_1_1_4.tif,00101_have_002640246A_1_1_1_4.tif,7.8,4.1,0,1,
102,have,002640246A TB 7.8 DB 4.1\1_1_1_8.tif,00102_have_002640246A_1_1_1_8.tif,7.8,4.1,0,1,
103,have,002640246A TB 7.8 DB 4.1\1_1_1_9.tif,00103_have_002640246A_1_1_1_9.tif,7.8,4.1,0,1,
104,have,002640246A TB 7.8 DB 4.1\1_1_2_25.tif,00104_have_002640246A_1_1_2_25.tif,7.8,4.1,0,1,
105,have,002640246A TB 7.8 DB 4.1\1_1_2_26.tif,00105_have_002640246A_1_1_2_26.tif,7.8,4.1,0,0,
106,have,002640246A TB 7.8 DB 4.1\1_1_2_27.tif,00106_have_002640246A_1_1_2_27.tif,7.8,4.1,0,1,
107,have,002640246A TB 7.8 DB 4.1\1_1_2_28.tif,00107_have_002640246A_1_1_2_28.tif,7.8,4.1,0,1,
108,have,002734614B TB 12.05 DB 6.60\1_1_1_1.tif,00108_have_002734614B_1_1_1_1.tif,12.05,6.60,0,1,
109,have,002734614B TB 12.05 DB 6.60\1_1_1_10.tif,00109_have_002734614B_1_1_1_10.tif,12.05,6.60,0,1,
110,have,002734614B TB 12.05 DB 6.60\1_1_1_11.tif,00110_have_002734614B_1_1_1_11.tif,12.05,6.60,0,1,
111,have,002734614B TB 12.05 DB 6.60\1_1_1_12.tif,00111_have_002734614B_1_1_1_12.tif,12.05,6.60,0,0,
112,have,002734614B TB 12.05 DB 6.60\1_1_1_13.tif,00112_have_002734614B_1_1_1_13.tif,12.05,6.60,0,1,
113,have,002734614B TB 12.05 DB 6.60\1_1_1_14.tif,00113_have_002734614B_1_1_1_14.tif,12.05,6.60,0,1,
114,have,002734614B TB 12.05 DB 6.60\1_1_1_15.tif,00114_have_002734614B_1_1_1_15.tif,12.05,6.60,0,1,
115,have,002734614B TB 12.05 DB 6.60\1_1_1_16.tif,00115_have_002734614B_1_1_1_16.tif,12.05,6.60,0,1,
116,have,002734614B TB 12.05 DB 6.60\1_1_1_17.tif,00116_have_002734614B_1_1_1_17.tif,12.05,6.60,0,1,
117,have,002734614B TB 12.05 DB 6.60\1_1_1_2.tif,00117_have_002734614B_1_1_1_2.tif,12.05,6.60,0,1,
118,have,002734614B TB 12.05 DB 6.60\1_1_1_3.tif,00118_have_002734614B_1_1_1_3.tif,12.05,6.60,0,1,
119,have,002734614B TB 12.05 DB 6.60\1_1_1_7.tif,00119_have_002734614B_1_1_1_7.tif,12.05,6.60,0,1,
120,have,002734614B TB 12.05 DB 6.60\1_1_1_8.tif,00120_have_002734614B_1_1_1_8.tif,12.05,6.60,0,1,
121,have,002734614B TB 12.05 DB 6.60\1_1_1_9.tif,00121_have_002734614B_1_1_1_9.tif,12.05,6.60,0,1,
122,have,002734614B TB 12.05 DB 6.60\1_1_2_33.tif,00122_have_002734614B_1_1_2_33.tif,12.05,6.60,0,1,
123,have,002734614B TB 12.05 DB 6.60\1_1_2_34.tif,00123_have_002734614B_1_1_2_34.tif,12.05,6.60,0,0,
124,have,002734614B TB 12.05 DB 6.60\1_1_2_35.tif,00124_have_002734614B_1_1_2_35.tif,12.05,6.60,0,0,
125,have,002734614B TB 12.05 DB 6.60\1_1_2_36.tif,00125_have_002734614B_1_1_2_36.tif,12.05,6.60,0,1,
126,have,002734614B TB 12.05 DB 6.60\1_1_2_37.tif,00126_have_002734614B_1_1_2_37.tif,12.05,6.60,0,1,
127,have,002734614B TB 12.05 DB 6.60\1_1_2_38.tif,00127_have_002734614B_1_1_2_38.tif,12.05,6.60,0,0,
128,have,002734614B TB 12.05 DB 6.60\1_1_3_39.tif,00128_have_002734614B_1_1_3_39.tif,12.05,6.60,0,1,
129,have,002791606J TB 7.9 DB 4.6\1_1_1_1.tif,00129_have_002791606J_1_1_1_1.tif,7.9,4.6,0,2,
130,have,002791606J TB 7.9 DB 4.6\1_1_1_10.tif,00130_have_002791606J_1_1_1_10.tif,7.9,4.6,0,2,
131,have,002791606J TB 7.9 DB 4.6\1_1_1_11.tif,00131_have_002791606J_1_1_1_11.tif,7.9,4.6,0,2,
132,have,002791606J TB 7.9 DB 4.6\1_1_1_2.tif,00132_have_002791606J_1_1_1_2.tif,7.9,4.6,0,2,
133,have,002791606J TB 7.9 DB 4.6\1_1_1_3.tif,00133_have_002791606J_1_1_1_3.tif,7.9,4.6,0,2,
134,have,002791606J TB 7.9 DB 4.6\1_1_1_4.tif,00134_have_002791606J_1_1_1_4.tif,7.9,4.6,0,2,
135,have,002791606J TB 7.9 DB 4.6\1_1_1_9.tif,00135_have_002791606J_1_1_1_9.tif,7.9,4.6,0,2,
136,have,002791606J TB 7.9 DB 4.6\1_1_2_23.tif,00136_have_002791606J_1_1_2_23.tif,7.9,4.6,0,2,
137,have,002791606J TB 7.9 DB 4.6\1_1_2_24.tif,00137_have_002791606J_1_1_2_24.tif,7.9,4.6,0,2,
138,have,002791606J TB 7.9 DB 4.6\1_1_2_25.tif,00138_have_002791606J_1_1_2_25.tif,7.9,4.6,0,2,
139,have,001928534I\A-1.jpg,00139_have_001928534I_feeding_A-1.jpg,0,0,1,1,
140,have,001928534I\A-2.jpg,00140_have_001928534I_feeding_A-2.jpg,0,0,1,1,
141,have,001928534I\B-1.jpg,00141_have_001928534I_feeding_B-1.jpg,0,0,1,1,
142,have,001928534I\B-2.jpg,00142_have_001928534I_feeding_B-2.jpg,0,0,1,1,
143,have,001928534I\C-1.jpg,00143_have_001928534I_feeding_C-1.jpg,0,0,1,1,
144,have,001928534I\C-2.jpg,00144_have_001928534I_feeding_C-2.jpg,0,0,1,1,
145,have,001928534I\D-1.jpg,00145_have_001928534I_feeding_D-1.jpg,0,0,1,1,
146,have,001928534I\D-2.jpg,00146_have_001928534I_feeding_D-2.jpg,0,0,1,1,
147,have,001928534I\D-3.jpg,00147_have_001928534I_feeding_D-3.jpg,0,0,1,1,
148,have,001928534I\D-4.jpg,00148_have_001928534I_feeding_D-4.jpg,0,0,1,1,
149,have,001944891A\A-1.jpg,00149_have_001944891A_NPO_A-1.jpg,0,0,0,1,
150,have,001944891A\A-2.jpg,00150_have_001944891A_NPO_A-2.jpg,0,0,0,1,
151,have,001944891A\B-1.jpg,00151_have_001944891A_NPO_B-1.jpg,0,0,0,1,
152,have,001944891A\B-2.jpg,00152_have_001944891A_NPO_B-2.jpg,0,0,0,1,
153,have,001944891A\B-3.jpg,00153_have_001944891A_NPO_B-3.jpg,0,0,0,1,
154,have,001944891A\C-1.jpg,00154_have_001944891A_NPO_C-1.jpg,0,0,0,1,
155,have,001944891A\C-2.jpg,00155_have_001944891A_NPO_C-2.jpg,0,0,0,1,
156,have,001944891A\D-1.jpg,00156_have_001944891A_NPO_D-1.jpg,0,0,0,1,
157,have,001944891A\D-2.jpg,00157_have_001944891A_NPO_D-2.jpg,0,0,0,1,
158,have,001954670E\A-1.jpg,00158_have_001954670E_NPO_A-1.jpg,0,0,0,1,
159,have,001954670E\A-2.jpg,00159_have_001954670E_NPO_A-2.jpg,0,0,0,1,
160,have,001954670E\B-1.jpg,00160_have_001954670E_NPO_B-1.jpg,0,0,0,1,
161,have,001954670E\B-2.jpg,00161_have_001954670E_NPO_B-2.jpg,0,0,0,1,
162,have,001954670E\B-3.jpg,00162_have_001954670E_NPO_B-3.jpg,0,0,0,1,
163,have,001954670E\B-4.jpg,00163_have_001954670E_NPO_B-4.jpg,0,0,0,1,
164,have,001954670E\C-1.jpg,00164_have_001954670E_NPO_C-1.jpg,0,0,0,1,
165,have,001954670E\C-2.jpg,00165_have_001954670E_NPO_C-2.jpg,0,0,0,1,
166,have,001954670E\D-1.jpg,00166_have_001954670E_NPO_D-1.jpg,0,0,0,1,
167,have,001954670E\D-2.jpg,00167_have_001954670E_NPO_D-2.jpg,0,0,0,1,
168,have,001954670E\D-3.jpg,00168_have_001954670E_NPO_D-3.jpg,0,0,0,1,
169,have,002015322E\A-1.jpg,00169_have_002015322E_NPO_A-1.jpg,0,0,0,1,
170,have,002015322E\A-2.jpg,00170_have_002015322E_NPO_A-2.jpg,0,0,0,1,
171,have,002015322E\B-1.jpg,00171_have_002015322E_NPO_B-1.jpg,0,0,0,1,
172,have,002015322E\B-2.jpg,00172_have_002015322E_NPO_B-2.jpg,0,0,0,1,
173,have,002015322E\B-3.jpg,00173_have_002015322E_NPO_B-3.jpg,0,0,0,1,
174,have,002015322E\B-4.jpg,00174_have_002015322E_NPO_B-4.jpg,0,0,0,1,
175,have,002015322E\C-1.jpg,00175_have_002015322E_NPO_C-1.jpg,0,0,0,1,
176,have,002015322E\C-2.jpg,00176_have_002015322E_NPO_C-2.jpg,0,0,0,1,
177,have,002015322E\D-1.jpg,00177_have_002015322E_NPO_D-1.jpg,0,0,0,1,
178,have,002015322E\D-2.jpg,00178_have_002015322E_NPO_D-2.jpg,0,0,0,1,
179,have,002015322E\D-3.jpg,00179_have_002015322E_NPO_D-3.jpg,0,0,0,1,
180,have,002015322E\D-4.jpg,00180_have_002015322E_NPO_D-4.jpg,0,0,0,1,
181,have,002015322E\D-5.jpg,00181_have_002015322E_NPO_D-5.jpg,0,0,0,1,
182,have,002015322E\D-6.jpg,00182_have_002015322E_NPO_D-6.jpg,0,0,0,1,
183,have,002015322E\B-1.jpg,00183_have_002015322E_feeding_B-1.jpg,0,0,1,1,
184,have,002015322E\B-2.jpg,00184_have_002015322E_feeding_B-2.jpg,0,0,1,1,
185,have,002015322E\B-3.jpg,00185_have_002015322E_feeding_B-3.jpg,0,0,1,1,
186,have,002015322E\B-4.jpg,00186_have_002015322E_feeding_B-4.jpg,0,0,1,1,
187,have,002015322E\B-5.jpg,00187_have_002015322E_feeding_B-5.jpg,0,0,1,1,
188,have,002150592A\A-1.jpg,00188_have_002150592A_NPO_A-1.jpg,0,0,0,1,
189,have,002150592A\A-2.jpg,00189_have_002150592A_NPO_A-2.jpg,0,0,0,1,
190,have,002150592A\A-3.jpg,00190_have_002150592A_NPO_A-3.jpg,0,0,0,1,
191,have,002150592A\B-1.jpg,00191_have_002150592A_NPO_B-1.jpg,0,0,0,1,
192,have,002150592A\B-2.jpg,00192_have_002150592A_NPO_B-2.jpg,0,0,0,1,
193,have,002150592A\B-3.jpg,00193_have_002150592A_NPO_B-3.jpg,0,0,0,1,
194,have,002150592A\B-4.jpg,00194_have_002150592A_NPO_B-4.jpg,0,0,0,1,
195,have,002150592A\C-1.jpg,00195_have_002150592A_NPO_C-1.jpg,0,0,0,1,
196,have,002150592A\C-2.jpg,00196_have_002150592A_NPO_C-2.jpg,0,0,0,1,
197,have,002150592A\C-3.jpg,00197_have_002150592A_NPO_C-3.jpg,0,0,0,1,
198,have,002150592A\D-1.jpg,00198_have_002150592A_NPO_D-1.jpg,0,0,0,1,
199,have,002150592A\D-2.jpg,00199_have_002150592A_NPO_D-2.jpg,0,0,0,0,
200,have,002150592A\D-3.jpg,00200_have_002150592A_NPO_D-3.jpg,0,0,0,0,
201,have,002150592A\D-4.jpg,00201_have_002150592A_NPO_D-4.jpg,0,0,0,1,
202,have,002150592A\D-5.jpg,00202_have_002150592A_NPO_D-5.jpg,0,0,0,0,
203,have,002150592A\D-6.jpg,00203_have_002150592A_NPO_D-6.jpg,0,0,0,1,
204,have,002150592A\A-1.jpg,00204_have_002150592A_feeding_A-1.jpg,0,0,1,1,
205,have,002150592A\A-2.jpg,00205_have_002150592A_feeding_A-2.jpg,0,0,1,1,
206,have,002150592A\B-1.jpg,00206_have_002150592A_feeding_B-1.jpg,0,0,1,1,
207,have,002150592A\B-2.jpg,00207_have_002150592A_feeding_B-2.jpg,0,0,1,0,
208,have,002150592A\B-3.jpg,00208_have_002150592A_feeding_B-3.jpg,0,0,1,0,
209,have,002150592A\B-4.jpg,00209_have_002150592A_feeding_B-4.jpg,0,0,1,0,
210,have,002167609F\A-1.jpg,00210_have_002167609F_NPO_A-1.jpg,0,0,0,1,
211,have,002167609F\A-2.jpg,00211_have_002167609F_NPO_A-2.jpg,0,0,0,1,
212,have,002167609F\B-1.jpg,00212_have_002167609F_NPO_B-1.jpg,0,0,0,1,
213,have,002167609F\B-2.jpg,00213_have_002167609F_NPO_B-2.jpg,0,0,0,1,
214,have,002167609F\C-1.jpg,00214_have_002167609F_NPO_C-1.jpg,0,0,0,1,
215,have,002167609F\C-2.jpg,00215_have_002167609F_NPO_C-2.jpg,0,0,0,1,
216,have,002167609F\C-3.jpg,00216_have_002167609F_NPO_C-3.jpg,0,0,0,1,
217,have,002167609F\C-4.jpg,00217_have_002167609F_NPO_C-4.jpg,0,0,0,1,
218,have,002167609F\D-1.jpg,00218_have_002167609F_NPO_D-1.jpg,0,0,0,1,
219,have,002167609F\D-2.jpg,00219_have_002167609F_NPO_D-2.jpg,0,0,0,1,
220,have,002167609F\D-3.jpg,00220_have_002167609F_NPO_D-3.jpg,0,0,0,1,
221,have,002167609F\D-4.jpg,00221_have_002167609F_NPO_D-4.jpg,0,0,0,1,
222,have,002481862A\A-1.jpg,00222_have_002481862A_NPO_A-1.jpg,0,0,0,1,
223,have,002481862A\A-2.jpg,00223_have_002481862A_NPO_A-2.jpg,0,0,0,1,
224,have,002481862A\A-3.jpg,00224_have_002481862A_NPO_A-3.jpg,0,0,0,1,
225,have,002481862A\B-1.jpg,00225_have_002481862A_NPO_B-1.jpg,0,0,0,1,
226,have,002481862A\B-2.jpg,00226_have_002481862A_NPO_B-2.jpg,0,0,0,0,
227,have,002481862A\B-3.jpg,00227_have_002481862A_NPO_B-3.jpg,0,0,0,0,
228,have,002481862A\C-1.jpg,00228_have_002481862A_NPO_C-1.jpg,0,0,0,1,
229,have,002481862A\C-2.jpg,00229_have_002481862A_NPO_C-2.jpg,0,0,0,1,
230,have,002481862A\C-3.jpg,00230_have_002481862A_NPO_C-3.jpg,0,0,0,1,
231,have,002481862A\D-1.jpg,00231_have_002481862A_NPO_D-1.jpg,0,0,0,1,
232,have,002481862A\D-2.jpg,00232_have_002481862A_NPO_D-2.jpg,0,0,0,1,
233,have,002481862A\D-3.jpg,00233_have_002481862A_NPO_D-3.jpg,0,0,0,1,
234,have,002481862A\B-1.jpg,00234_have_002481862A_feeding_B-1.jpg,0,0,1,1,
235,have,002481862A\B-2.jpg,00235_have_002481862A_feeding_B-2.jpg,0,0,1,1,
236,have,002580625B\A-1.jpg,00236_have_002580625B_NPO_A-1.jpg,0,0,0,2,
237,have,002580625B\A-2.jpg,00237_have_002580625B_NPO_A-2.jpg,0,0,0,2,
238,have,002580625B\A-3.jpg,00238_have_002580625B_NPO_A-3.jpg,0,0,0,2,
239,have,002580625B\B-1.jpg,00239_have_002580625B_NPO_B-1.jpg,0,0,0,2,
240,have,002580625B\B-2.jpg,00240_have_002580625B_NPO_B-2.jpg,0,0,0,2,
241,have,002580625B\C-1.jpg,00241_have_002580625B_NPO_C-1.jpg,0,0,0,2,
242,have,002580625B\C-2.jpg,00242_have_002580625B_NPO_C-2.jpg,0,0,0,2,
243,have,002580625B\D-1.jpg,00243_have_002580625B_NPO_D-1.jpg,0,0,0,2,
244,have,002580625B\D-2.jpg,00244_have_002580625B_NPO_D-2.jpg,0,0,0,2,
245,have,002580625B\D-3.jpg,00245_have_002580625B_NPO_D-3.jpg,0,0,0,2,
246,have,002580625B\D-4.jpg,00246_have_002580625B_NPO_D-4.jpg,0,0,0,2,
247,have,002580625B\D-5.jpg,00247_have_002580625B_NPO_D-5.jpg,0,0,0,2,
248,have,002580625B\B-1.jpg,00248_have_002580625B_feeding_B-1.jpg,0,0,1,2,
249,have,002580625B\B-2.jpg,00249_have_002580625B_feeding_B-2.jpg,0,0,1,2,
250,have,002640246A\A-1.jpg,00250_have_002640246A_NPO_A-1.jpg,0,0,0,1,
251,have,002640246A\A-2.jpg,00251_have_002640246A_NPO_A-2.jpg,0,0,0,1,
252,have,002640246A\B-1.jpg,00252_have_002640246A_NPO_B-1.jpg,0,0,0,1,
253,have,002640246A\B-2.jpg,00253_have_002640246A_NPO_B-2.jpg,0,0,0,1,
254,have,002640246A\B-3.jpg,00254_have_002640246A_NPO_B-3.jpg,0,0,0,1,
255,have,002640246A\B-4.jpg,00255_have_002640246A_NPO_B-4.jpg,0,0,0,1,
256,have,002640246A\C-1.jpg,00256_have_002640246A_NPO_C-1.jpg,0,0,0,1,
257,have,002640246A\C-2.jpg,00257_have_002640246A_NPO_C-2.jpg,0,0,0,1,
258,have,002640246A\C-3.jpg,00258_have_002640246A_NPO_C-3.jpg,0,0,0,1,
259,have,002640246A\D-1.jpg,00259_have_002640246A_NPO_D-1.jpg,0,0,0,1,
260,have,002640246A\D-2.jpg,00260_have_002640246A_NPO_D-2.jpg,0,0,0,1,
261,have,002640246A\D-3.jpg,00261_have_002640246A_NPO_D-3.jpg,0,0,0,1,
262,have,002640246A\1_1_2_25.jpg,00262_have_002640246A_feeding_1_1_2_25.jpg,0,0,1,1,
263,have,002640246A\1_1_2_26.jpg,00263_have_002640246A_feeding_1_1_2_26.jpg,0,0,1,1,
264,have,002640246A\1_1_2_27.jpg,00264_have_002640246A_feeding_1_1_2_27.jpg,0,0,1,1,
265,have,002640246A\1_1_2_28.jpg,00265_have_002640246A_feeding_1_1_2_28.jpg,0,0,1,1,
266,have,002760680A\A-1.jpg,00266_have_002760680A_feeding_A-1.jpg,0,0,1,1,
267,have,002760680A\A-2.jpg,00267_have_002760680A_feeding_A-2.jpg,0,0,1,1,
268,have,002760680A\B-1.jpg,00268_have_002760680A_feeding_B-1.jpg,0,0,1,1,
269,have,002760680A\B-2.jpg,00269_have_002760680A_feeding_B-2.jpg,0,0,1,0,
270,have,002760680A\B-3.jpg,00270_have_002760680A_feeding_B-3.jpg,0,0,1,1,
271,have,002760680A\C-1.jpg,00271_have_002760680A_feeding_C-1.jpg,0,0,1,1,
272,have,002760680A\C-2.jpg,00272_have_002760680A_feeding_C-2.jpg,0,0,1,1,
273,have,002760680A\D-1.jpg,00273_have_002760680A_feeding_D-1.jpg,0,0,1,1,
274,have,002760680A\D-2.jpg,00274_have_002760680A_feeding_D-2.jpg,0,0,1,1,
275,have,002791606J\A-1.jpg,00275_have_002791606J_NPO_A-1.jpg,0,0,0,2,
276,have,002791606J\A-2.jpg,00276_have_002791606J_NPO_A-2.jpg,0,0,0,2,
277,have,002791606J\A-3.jpg,00277_have_002791606J_NPO_A-3.jpg,0,0,0,2,
278,have,002791606J\B-1.jpg,00278_have_002791606J_NPO_B-1.jpg,0,0,0,2,
279,have,002791606J\B-2.jpg,00279_have_002791606J_NPO_B-2.jpg,0,0,0,2,
280,have,002791606J\B-3.jpg,00280_have_002791606J_NPO_B-3.jpg,0,0,0,2,
281,have,002791606J\B-4.jpg,00281_have_002791606J_NPO_B-4.jpg,0,0,0,2,
282,have,002791606J\C-1.jpg,00282_have_002791606J_NPO_C-1.jpg,0,0,0,2,
283,have,002791606J\C-2.jpg,00283_have_002791606J_NPO_C-2.jpg,0,0,0,2,
284,have,002791606J\C-3.jpg,00284_have_002791606J_NPO_C-3.jpg,0,0,0,2,
285,have,002791606J\D-1.jpg,00285_have_002791606J_NPO_D-1.jpg,0,0,0,2,
286,have,002791606J\D-2.jpg,00286_have_002791606J_NPO_D-2.jpg,0,0,0,2,
287,have,002791606J\B-1.jpg,00287_have_002791606J_feeding_B-1.jpg,0,0,1,2,
288,have,002791606J\B-2.jpg,00288_have_002791606J_feeding_B-2.jpg,0,0,1,2,
289,have,002791606J\B-3.jpg,00289_have_002791606J_feeding_B-3.jpg,0,0,1,2,
290,have,001773860C\A-1.jpg,00290_have_001773860C_A-1.jpg,0,0,0,1,
291,have,001773860C\A-2.jpg,00291_have_001773860C_A-2.jpg,0,0,0,1,
292,have,001773860C\A-3.jpg,00292_have_001773860C_A-3.jpg,0,0,0,1,
293,have,001773860C\B-1.jpg,00293_have_001773860C_B-1.jpg,0,0,0,1,
294,have,001773860C\B-2.jpg,00294_have_001773860C_B-2.jpg,0,0,0,1,
295,have,001773860C\C-1.jpg,00295_have_001773860C_C-1.jpg,0,0,0,1,
296,have,001773860C\D-1.jpg,00296_have_001773860C_D-1.jpg,0,0,0,1,
297,have,001787963J\A-1.jpg,00297_have_001787963J_A-1.jpg,0,0,0,1,
298,have,001787963J\A-2.jpg,00298_have_001787963J_A-2.jpg,0,0,0,1,
299,have,001787963J\B-1.jpg,00299_have_001787963J_B-1.jpg,0,0,0,1,
300,have,001787963J\B-2.jpg,00300_have_001787963J_B-2.jpg,0,0,0,1,
301,have,001787963J\C-1.jpg,00301_have_001787963J_C-1.jpg,0,0,0,1,
302,have,001787963J\C-2.jpg,00302_have_001787963J_C-2.jpg,0,0,0,1,
303,have,001787963J\D-1.jpg,00303_have_001787963J_D-1.jpg,0,0,0,1,
304,have,001787963J\D-2.jpg,00304_have_001787963J_D-2.jpg,0,0,0,1,
305,have,001792030I\A-1.jpg,00305_have_001792030I_A-1.jpg,0,0,0,1,
306,have,001792030I\A-2.jpg,00306_have_001792030I_A-2.jpg,0,0,0,1,
307,have,001792030I\A-3.jpg,00307_have_001792030I_A-3.jpg,0,0,0,1,
308,have,001792030I\B-1.jpg,00308_have_001792030I_B-1.jpg,0,0,0,1,
309,have,001792030I\B-2.jpg,00309_have_001792030I_B-2.jpg,0,0,0,0,
310,have,001792030I\B-3.jpg,00310_have_001792030I_B-3.jpg,0,0,0,1,
311,have,001792030I\B-4.jpg,00311_have_001792030I_B-4.jpg,0,0,0,1,
312,have,001792030I\C-1.jpg,00312_have_001792030I_C-1.jpg,0,0,0,1,
313,have,001792030I\D-1.jpg,00313_have_001792030I_D-1.jpg,0,0,0,1,
314,have,001800895C\A-1.jpg,00314_have_001800895C_A-1.jpg,0,0,0,1,
315,have,001800895C\A-2.jpg,00315_have_001800895C_A-2.jpg,0,0,0,1,
316,have,001800895C\B-1.jpg,00316_have_001800895C_B-1.jpg,0,0,0,1,
317,have,001800895C\B-2.jpg,00317_have_001800895C_B-2.jpg,0,0,0,1,
318,have,001800895C\B-3.jpg,00318_have_001800895C_B-3.jpg,0,0,0,0,
319,have,001800895C\C-1.jpg,00319_have_001800895C_C-1.jpg,0,0,0,1,
320,have,001800895C\C-2.jpg,00320_have_001800895C_C-2.jpg,0,0,0,1,
321,have,001800895C\C-3.jpg,00321_have_001800895C_C-3.jpg,0,0,0,0,
322,have,001800895C\D-1.jpg,00322_have_001800895C_D-1.jpg,0,0,0,1,
323,have,001800895C\D-2.jpg,00323_have_001800895C_D-2.jpg,0,0,0,0,
324,have,001824931F\A-1.jpg,00324_have_001824931F_A-1.jpg,0,0,0,1,
325,have,001824931F\A-2.jpg,00325_have_001824931F_A-2.jpg,0,0,0,1,
326,have,001824931F\B-1.jpg,00326_have_001824931F_B-1.jpg,0,0,0,1,
327,have,001824931F\B-2.jpg,00327_have_001824931F_B-2.jpg,0,0,0,1,
328,have,001824931F\B-3.jpg,00328_have_001824931F_B-3.jpg,0,0,0,1,
329,have,001824931F\C-1.jpg,00329_have_001824931F_C-1.jpg,0,0,0,1,
330,have,001824931F\C-2.jpg,00330_have_001824931F_C-2.jpg,0,0,0,1,
331,have,001824931F\C-3.jpg,00331_have_001824931F_C-3.jpg,0,0,0,1,
332,have,001824931F\D-1.jpg,00332_have_001824931F_D-1.jpg,0,0,0,1,
333,have,001827349J\A-1.jpg,00333_have_001827349J_A-1.jpg,0,0,0,2,
334,have,001827349J\A-2.jpg,00334_have_001827349J_A-2.jpg,0,0,0,2,
335,have,001827349J\B-1.jpg,00335_have_001827349J_B-1.jpg,0,0,0,2,
336,have,001827349J\B-2.jpg,00336_have_001827349J_B-2.jpg,0,0,0,2,
337,have,001827349J\C-1.jpg,00337_have_001827349J_C-1.jpg,0,0,0,2,
338,have,001827349J\C-2.jpg,00338_have_001827349J_C-2.jpg,0,0,0,2,
339,have,001827349J\C-3.jpg,00339_have_001827349J_C-3.jpg,0,0,0,2,
340,have,001827349J\D-1.jpg,00340_have_001827349J_D-1.jpg,0,0,0,2,
341,have,001843703B\A-1.jpg,00341_have_001843703B_A-1.jpg,0,0,0,1,
342,have,001843703B\A-2.jpg,00342_have_001843703B_A-2.jpg,0,0,0,1,
343,have,001843703B\A-3.jpg,00343_have_001843703B_A-3.jpg,0,0,0,1,
344,have,001843703B\B-1.jpg,00344_have_001843703B_B-1.jpg,0,0,0,0,
345,have,001843703B\B-10.jpg,00345_have_001843703B_B-10.jpg,0,0,0,1,
346,have,001843703B\B-2.jpg,00346_have_001843703B_B-2.jpg,0,0,0,0,
347,have,001843703B\B-3.jpg,00347_have_001843703B_B-3.jpg,0,0,0,1,
348,have,001843703B\B-4.jpg,00348_have_001843703B_B-4.jpg,0,0,0,1,
349,have,001843703B\B-5.jpg,00349_have_001843703B_B-5.jpg,0,0,0,1,
350,have,001843703B\B-6.jpg,00350_have_001843703B_B-6.jpg,0,0,0,1,
351,have,001843703B\B-7.jpg,00351_have_001843703B_B-7.jpg,0,0,0,1,
352,have,001843703B\B-8.jpg,00352_have_001843703B_B-8.jpg,0,0,0,1,
353,have,001843703B\B-9.jpg,00353_have_001843703B_B-9.jpg,0,0,0,1,
354,have,001843703B\C-1.jpg,00354_have_001843703B_C-1.jpg,0,0,0,1,
355,have,001843703B\C-2.jpg,00355_have_001843703B_C-2.jpg,0,0,0,1,
356,have,001843703B\C-3.jpg,00356_have_001843703B_C-3.jpg,0,0,0,1,
357,have,001843703B\D-1.jpg,00357_have_001843703B_D-1.jpg,0,0,0,1,
358,have,001863964A\A-1.jpg,00358_have_001863964A_A-1.jpg,0,0,0,1,
359,have,001863964A\A-2.jpg,00359_have_001863964A_A-2.jpg,0,0,0,1,
360,have,001863964A\A-3.jpg,00360_have_001863964A_A-3.jpg,0,0,0,1,
361,have,001863964A\B-1.jpg,00361_have_001863964A_B-1.jpg,0,0,0,1,
362,have,001863964A\B-2.jpg,00362_have_001863964A_B-2.jpg,0,0,0,1,
363,have,001863964A\B-3.jpg,00363_have_001863964A_B-3.jpg,0,0,0,1,
364,have,001863964A\B-4.jpg,00364_have_001863964A_B-4.jpg,0,0,0,1,
365,have,001863964A\B-5.jpg,00365_have_001863964A_B-5.jpg,0,0,0,1,
366,have,001863964A\C-1.jpg,00366_have_001863964A_C-1.jpg,0,0,0,1,
367,have,001863964A\C-2.jpg,00367_have_001863964A_C-2.jpg,0,0,0,1,
368,have,001863964A\C-3.jpg,00368_have_001863964A_C-3.jpg,0,0,0,1,
369,have,001863964A\D-1.jpg,00369_have_001863964A_D-1.jpg,0,0,0,1,
370,have,001868546G\A-1.jpg,00370_have_001868546G_A-1.jpg,0,0,0,1,
371,have,001868546G\B-1.jpg,00371_have_001868546G_B-1.jpg,0,0,0,1,
372,have,001868546G\B-2.jpg,00372_have_001868546G_B-2.jpg,0,0,0,1,
373,have,001868546G\B-3.jpg,00373_have_001868546G_B-3.jpg,0,0,0,1,
374,have,001868546G\C-1.jpg,00374_have_001868546G_C-1.jpg,0,0,0,1,
375,have,001868546G\C-2.jpg,00375_have_001868546G_C-2.jpg,0,0,0,1,
376,have,001868546G\D-1.jpg,00376_have_001868546G_D-1.jpg,0,0,0,1,
377,have,001908308A\A-1.jpg,00377_have_001908308A_A-1.jpg,0,0,0,1,
378,have,001908308A\A-2.jpg,00378_have_001908308A_A-2.jpg,0,0,0,1,
379,have,001908308A\B-1.jpg,00379_have_001908308A_B-1.jpg,0,0,0,1,
380,have,001908308A\B-2.jpg,00380_have_001908308A_B-2.jpg,0,0,0,1,
381,have,001908308A\B-3.jpg,00381_have_001908308A_B-3.jpg,0,0,0,1,
382,have,001908308A\C-1.jpg,00382_have_001908308A_C-1.jpg,0,0,0,1,
383,have,001908308A\C-2.jpg,00383_have_001908308A_C-2.jpg,0,0,0,1,
384,have,001908308A\C-3.jpg,00384_have_001908308A_C-3.jpg,0,0,0,1,
385,have,001908308A\C-4.jpg,00385_have_001908308A_C-4.jpg,0,0,0,0,
386,have,001908308A\C-5.jpg,00386_have_001908308A_C-5.jpg,0,0,0,1,
387,have,001908308A\C-6.jpg,00387_have_001908308A_C-6.jpg,0,0,0,1,
388,have,001908308A\D-1.jpg,00388_have_001908308A_D-1.jpg,0,0,0,1,
389,have,001908308A\D-2.jpg,00389_have_001908308A_D-2.jpg,0,0,0,1,
390,have,001740279I\A-1.jpg,00390_have_001740279I_A-1.jpg,0,0,0,2,
391,have,001740279I\A-2.jpg,00391_have_001740279I_A-2.jpg,0,0,0,2,
392,have,001740279I\B-1.jpg,00392_have_001740279I_B-1.jpg,0,0,0,2,
393,have,001740279I\B-2.jpg,00393_have_001740279I_B-2.jpg,0,0,0,2,
394,have,001740279I\B-3.jpg,00394_have_001740279I_B-3.jpg,0,0,0,2,
395,have,001740279I\C-1.jpg,00395_have_001740279I_C-1.jpg,0,0,0,2,
396,have,001754072G\A-1.jpg,00396_have_001754072G_A-1.jpg,0,0,0,1,
397,have,001754072G\B-1.jpg,00397_have_001754072G_B-1.jpg,0,0,0,1,
398,have,001754072G\B-2.jpg,00398_have_001754072G_B-2.jpg,0,0,0,1,
399,have,001754072G\C-1.jpg,00399_have_001754072G_C-1.jpg,0,0,0,1,
400,have,001754072G\C-2.jpg,00400_have_001754072G_C-2.jpg,0,0,0,1,
401,have,001754072G\C-3.jpg,00401_have_001754072G_C-3.jpg,0,0,0,1,
402,have,001754072G\D-1.jpg,00402_have_001754072G_D-1.jpg,0,0,0,1,
403,have,001754072G\D-2.jpg,00403_have_001754072G_D-2.jpg,0,0,0,1,
404,have,001761189B\A-1.jpg,00404_have_001761189B_A-1.jpg,0,0,0,1,
405,have,001761189B\A-2.jpg,00405_have_001761189B_A-2.jpg,0,0,0,1,
406,have,001761189B\B-1.jpg,00406_have_001761189B_B-1.jpg,0,0,0,1,
407,have,001761189B\C-1.jpg,00407_have_001761189B_C-1.jpg,0,0,0,1,
408,have,001761189B\C-2.jpg,00408_have_001761189B_C-2.jpg,0,0,0,1,
409,have,001761189B\D-1.jpg,00409_have_001761189B_D-1.jpg,0,0,0,1,
410,have,001761520C\B-1.jpg,00410_have_001761520C_B-1.jpg,0,0,0,1,
411,have,001761520C\B-2.jpg,00411_have_001761520C_B-2.jpg,0,0,0,1,
412,have,001761520C\B-3.jpg,00412_have_001761520C_B-3.jpg,0,0,0,1,
413,have,001761520C\B-4.jpg,00413_have_001761520C_B-4.jpg,0,0,0,1,
414,have,001761520C\C-1.jpg,00414_have_001761520C_C-1.jpg,0,0,0,1,
415,have,001761520C\C-2.jpg,00415_have_001761520C_C-2.jpg,0,0,0,1,
416,have,001761520C\D-1.jpg,00416_have_001761520C_D-1.jpg,0,0,0,1,
417,have,3141878-7\B-5.jpg,00417_have_3141878-7_B-5.jpg,0,0,0,1,
418,have,3141878-7\B-6.jpg,00418_have_3141878-7_B-6.jpg,0,0,0,1,
419,have,3141878-7\B-7.jpg,00419_have_3141878-7_B-7.jpg,0,0,0,1,
420,have,3141878-7\B-8.jpg,00420_have_3141878-7_B-8.jpg,0,0,0,1,
421,have,3141878-7\B-9.jpg,00421_have_3141878-7_B-9.jpg,0,0,0,1,
422,have,3307053-0\C-1.jpg,00422_have_3307053-0_C-1.jpg,0,0,0,1,
423,have,3307053-0\C-10.jpg,00423_have_3307053-0_C-10.jpg,0,0,0,1,
424,have,3307053-0\C-12.jpg,00424_have_3307053-0_C-12.jpg,0,0,0,1,
425,have,3307053-0\C-13.jpg,00425_have_3307053-0_C-13.jpg,0,0,0,1,
426,have,3307053-0\C-14.jpg,00426_have_3307053-0_C-14.jpg,0,0,0,1,
427,have,3307053-0\C-15.jpg,00427_have_3307053-0_C-15.jpg,0,0,0,1,
428,have,3307053-0\C-16.jpg,00428_have_3307053-0_C-16.jpg,0,0,0,1,
429,have,3307053-0\C-17.jpg,00429_have_3307053-0_C-17.jpg,0,0,0,0,
430,have,3307053-0\C-18.jpg,00430_have_3307053-0_C-18.jpg,0,0,0,1,
431,have,3307053-0\C-19.jpg,00431_have_3307053-0_C-19.jpg,0,0,0,0,
432,have,3307053-0\C-2.jpg,00432_have_3307053-0_C-2.jpg,0,0,0,1,
433,have,3307053-0\C-4.jpg,00433_have_3307053-0_C-4.jpg,0,0,0,1,
434,have,3307053-0\C-8.jpg,00434_have_3307053-0_C-8.jpg,0,0,0,0,
435,have,3307053-0\C-9.jpg,00435_have_3307053-0_C-9.jpg,0,0,0,1,
436,have,3307053-0\D-1.jpg,00436_have_3307053-0_D-1.jpg,0,0,0,1,
437,have,3390695-5\B-1.jpg,00437_have_3390695-5_B-1.jpg,0,0,0,2,
438,have,3390695-5\B-10.jpg,00438_have_3390695-5_B-10.jpg,0,0,0,2,
439,have,3390695-5\B-11.jpg,00439_have_3390695-5_B-11.jpg,0,0,0,2,
440,have,3390695-5\B-2.jpg,00440_have_3390695-5_B-2.jpg,0,0,0,2,
441,have,3390695-5\B-3.jpg,00441_have_3390695-5_B-3.jpg,0,0,0,2,
442,have,3390695-5\B-4.jpg,00442_have_3390695-5_B-4.jpg,0,0,0,2,
443,have,3390695-5\B-5.jpg,00443_have_3390695-5_B-5.jpg,0,0,0,2,
444,have,3390695-5\B-6.jpg,00444_have_3390695-5_B-6.jpg,0,0,0,2,
445,have,3390695-5\B-7.jpg,00445_have_3390695-5_B-7.jpg,0,0,0,2,
446,have,3390695-5\B-8.jpg,00446_have_3390695-5_B-8.jpg,0,0,0,2,
447,have,3390695-5\B-9.jpg,00447_have_3390695-5_B-9.jpg,0,0,0,2,
448,have,4116166-4\C-4.jpg,00448_have_4116166-4_C-4.jpg,0,0,0,1,
449,have,4116166-4\C-5.jpg,00449_have_4116166-4_C-5.jpg,0,0,0,1,
450,have,4116166-4\C-6.jpg,00450_have_4116166-4_C-6.jpg,0,0,0,1,
451,have,4116166-4\C-7.jpg,00451_have_4116166-4_C-7.jpg,0,0,0,1,
452,have,4116166-4\C-8.jpg,00452_have_4116166-4_C-8.jpg,0,0,0,1,
453,have,4116166-4\C-9.jpg,00453_have_4116166-4_C-9.jpg,0,0,0,0,
454,have,4092107-1\A-1.jpg,00454_have_4092107-1_A-1.jpg,0,0,0,1,
455,have,4092107-1\A-2.jpg,00455_have_4092107-1_A-2.jpg,0,0,0,1,
456,have,4092107-1\A-3.jpg,00456_have_4092107-1_A-3.jpg,0,0,0,1,
457,have,4092107-1\A-4.jpg,00457_have_4092107-1_A-4.jpg,0,0,0,0,
458,have,4092107-1\A-5.jpg,00458_have_4092107-1_A-5.jpg,0,0,0,1,
459,have,4092107-1\A-7.jpg,00459_have_4092107-1_A-7.jpg,0,0,0,1,
460,have,4092107-1\B-1.jpg,00460_have_4092107-1_B-1.jpg,0,0,0,1,
461,have,4092107-1\B-10.jpg,00461_have_4092107-1_B-10.jpg,0,0,0,1,
462,have,4092107-1\B-2.jpg,00462_have_4092107-1_B-2.jpg,0,0,0,1,
463,have,4092107-1\B-3.jpg,00463_have_4092107-1_B-3.jpg,0,0,0,1,
464,have,4092107-1\B-4.jpg,00464_have_4092107-1_B-4.jpg,0,0,0,1,
465,have,4092107-1\B-5.jpg,00465_have_4092107-1_B-5.jpg,0,0,0,1,
466,have,4092107-1\B-6.jpg,00466_have_4092107-1_B-6.jpg,0,0,0,0,
467,have,4092107-1\B-7.jpg,00467_have_4092107-1_B-7.jpg,0,0,0,1,
468,have,4092107-1\B-8.jpg,00468_have_4092107-1_B-8.jpg,0,0,0,1,
469,have,4092107-1\B-9.jpg,00469_have_4092107-1_B-9.jpg,0,0,0,1,
470,have,4092107-1\C-1.jpg,00470_have_4092107-1_C-1.jpg,0,0,0,1,
471,have,4092107-1\C-2.jpg,00471_have_4092107-1_C-2.jpg,0,0,0,1,
472,have,4092107-1\C-3.jpg,00472_have_4092107-1_C-3.jpg,0,0,0,1,
473,have,4092107-1\C-4.jpg,00473_have_4092107-1_C-4.jpg,0,0,0,1,
474,have,4092107-1\C-5.jpg,00474_have_4092107-1_C-5.jpg,0,0,0,1,
475,have,4072422-9\A-1.jpg,00475_have_4072422-9_A-1.jpg,0,0,0,1,
476,have,4072422-9\A-2.jpg,00476_have_4072422-9_A-2.jpg,0,0,0,1,
477,have,4072422-9\A-3.jpg,00477_have_4072422-9_A-3.jpg,0,0,0,1,
478,have,4072422-9\A-4.jpg,00478_have_4072422-9_A-4.jpg,0,0,0,1,
479,have,4072422-9\A-5.jpg,00479_have_4072422-9_A-5.jpg,0,0,0,1,
480,have,4072422-9\A-6.jpg,00480_have_4072422-9_A-6.jpg,0,0,0,1,
481,have,4072422-9\B-1.jpg,00481_have_4072422-9_B-1.jpg,0,0,0,1,
482,have,4072422-9\B-2.jpg,00482_have_4072422-9_B-2.jpg,0,0,0,1,
483,have,4072422-9\B-3.jpg,00483_have_4072422-9_B-3.jpg,0,0,0,1,
484,have,4072422-9\B-4.jpg,00484_have_4072422-9_B-4.jpg,0,0,0,1,
485,have,4072422-9\B-5.jpg,00485_have_4072422-9_B-5.jpg,0,0,0,0,
486,have,4072422-9\B-6.jpg,00486_have_4072422-9_B-6.jpg,0,0,0,0,
487,have,4072422-9\B-7.jpg,00487_have_4072422-9_B-7.jpg,0,0,0,1,
488,have,4072422-9\B-8.jpg,00488_have_4072422-9_B-8.jpg,0,0,0,1,
489,have,4072422-9\C-1.jpg,00489_have_4072422-9_C-1.jpg,0,0,0,1,
490,have,4072422-9\C-2.jpg,00490_have_4072422-9_C-2.jpg,0,0,0,0,
491,have,45866204\A-1.jpg,00491_have_45866204_A-1.jpg,0,0,0,2,
492,have,45866204\A-2.jpg,00492_have_45866204_A-2.jpg,0,0,0,2,
493,have,45866204\A-3.jpg,00493_have_45866204_A-3.jpg,0,0,0,2,
494,have,45866204\A-4.jpg,00494_have_45866204_A-4.jpg,0,0,0,2,
495,have,45866204\B-1.jpg,00495_have_45866204_B-1.jpg,0,0,0,0,
496,have,45866204\B-10.jpg,00496_have_45866204_B-10.jpg,0,0,0,0,
497,have,45866204\B-11.jpg,00497_have_45866204_B-11.jpg,0,0,0,0,
498,have,45866204\B-2.jpg,00498_have_45866204_B-2.jpg,0,0,0,0,
499,have,45866204\B-3.jpg,00499_have_45866204_B-3.jpg,0,0,0,0,
500,have,45866204\B-4.jpg,00500_have_45866204_B-4.jpg,0,0,0,0,
501,have,45866204\B-5.jpg,00501_have_45866204_B-5.jpg,0,0,0,0,
502,have,45866204\B-6.jpg,00502_have_45866204_B-6.jpg,0,0,0,2,
503,have,45866204\B-7.jpg,00503_have_45866204_B-7.jpg,0,0,0,0,
504,have,45866204\B-8.jpg,00504_have_45866204_B-8.jpg,0,0,0,0,
505,have,45866204\B-9.jpg,00505_have_45866204_B-9.jpg,0,0,0,0,
506,have,45866204\D-1.jpg,00506_have_45866204_D-1.jpg,0,0,0,0,
507,have,45866204\D-2.jpg,00507_have_45866204_D-2.jpg,0,0,0,0,
508,have,45866204\D-3.jpg,00508_have_45866204_D-3.jpg,0,0,0,2,
509,have,45866204\D-4.jpg,00509_have_45866204_D-4.jpg,0,0,0,2,
510,have,45866204\D-5.jpg,00510_have_45866204_D-5.jpg,0,0,0,2,
